Name,Send Date,Key,Covered?,Email,SiteName
Aida,12/06/14,RE49M-3UC9Q-1U9S0-OQX54-W0RCU,No,aidan@invisioncommunity.co.uk,
Josh,12/06/14,PSC2C-TOL0R-RRWLC-L7IDT-87IVO,No,jugslinterfins@aol.com,
ThingsWePlay,12/06/14,M1M5T-OJY8T-BWJB5-XOLKO-IYOLP,No,thingsweplay@gmail.com,
TheKillerBits,12/06/14,PT40Q-G3HNG-R8QCN-GWJH2-NL674,No,thekillerbits@icarus-films.co.uk,
Will @ Willmanda,12/06/14,OOCOQ-FNFU9-1R5LJ-7RQLH-BPPRA,No,willmandagames@gmail.com,
LukeNuetzmann ,12/06/14,RM4FN-F20FO-2DSI6-IS7U8-XK2TY,No,LukeNuetzmann@gmail.com,
Sven @ Weasel,12/06/14,TM7A7-XKDLC-L627E-M1R5U-E0TRW,No,business@weaselzone.com,
xGdog,12/06/14,LO3MR-V4BLR-VPFJ3-2O1U5-UMBK4,No,oberst@hotmail.co.uk,
William @ TTarantoX ,12/06/14,SX44B-QAFB2-1VO6Y-IH2RL-KLAG1,No,w.anderson6@ymail.com,
SweetieSwitch ,12/06/14,IS0RX-ED0XH-XCL6Z-GQ669-DU2H9,No,sweetieswitch@gmail.com,
Col?nia Contra-Ataca,12/06/14,JF9SA-AAIP5-N0AK4-APNYZ-M6XGM,No,srcoloniacontraataca@gmail.com,
MyGowD ,12/06/14,KOG71-HWINS-4WYUQ-Z9XDN-D367W,No,mygaude@yahoo.fr,
GamerPET,12/06/14,XX0XO-BTHKU-HEC8A-69RLG-FNRTI,No,pet@gamerpet.com,
Saber,12/06/14,Q5ZP0-XSXGF-DG4IC-XHDN1-J8A3L,No,zanaten@gmail.com,
ChristonianA,12/06/14,YRYQW-RQF0X-PVTII-1DNVT-I6NON,No,indiewithchristonian@gmail.com,
Nathan,12/06/14,IPOQG-SG09I-IC3M6-TRUD4-446SG,No,nathan@rockpapershotgun.com,Rock Paper Shotgun
Indiegame.com Editors,12/06/14,VPBPF-PYWJ8-BOWNS-KZEG3-ID9C9,No,editors@indiegames.com,IndieGames.com
Derek,12/06/14,RO23H-GY568-BKF7J-OJ87E-BQE7E,No,yu.derek@gmail.com,tigsource
Game Sphere,12/06/14,KXMNJ-WA1DK-ZOMX8-BLPUS-5ZOEL,No,contact@game-sphere.fr,Game Sphere
PCN Editors,12/06/14,JJFCZ-AFQOY-Z4LN4-EQHWL-J09XF,No,editor@pcgamesn.com,Indie N
Indie Vault Editors,12/06/14,OAGSU-NGRIJ-Q9OP3-YCFLL-LIT62,No,info@indievault.it,Indie Vault
Indie-o-rama,12/06/14,H4ZN8-1ZT68-JCPYO-2MMNM-OPM4U,No,contacto@indieorama.com,Indie-o-rama
Press a Key,12/06/14,J0CI3-H5DPK-D801W-Y2BDM-ZVYA4,No,redaktion@pressakey.com,Press a Key
Dom,12/06/14,X5CZ1-5V9TF-N8YRD-WOFBT-J4DXY,No,dom@superlevel.de,SuperLevel
Keza,12/06/14,PEBGU-JAUSK-LBO73-HBEUW-EF6YI,No,keza@kotaku.co.uk,Kotaku
Lucy,12/06/14,SSHDT-ZDQR5-O12SL-DIP3L-6E8R3,No,lucy@indiestatik.com,Indie Statik
Buy Some Indie Games,12/06/14,VVD4P-RQJTR-1GLQE-Q45KV-HITT3,No,buysomeindiegames@gmail.com,Buy Some Indie Games
True PC Gaming,12/06/14,QNYOB-9ZGDM-BG3B9-S7KGL-L5H0K,No,admin@truepcgaming.com ,True PC Gaming
Russ,12/06/14,RI1EH-190XD-X5GFP-V3ME2-HEPA8,No,russ@bigsushi.fm,BigSushi.fm
Rodolphe ,12/06/14,GTFUG-NQL2P-FMXOJ-HWZUS-CG9QY,No,rodolphe.moindreau@indius.org,Indius
Venus Patrol,12/06/14,HD5GB-C70QT-K7JEC-AR5SJ-95VHR,No,submit@venuspatrol.com,Venus Patrol
Anthony,12/06/14,G0LGC-KSDR9-3RQ7Y-U2LQB-4SB0A,No,anthony@armlessoctopus.com,Armless Octopus
Bill,12/06/14,KTKXG-J27GN-DTG33-E1RHY-L8P33,No,bill@extraguy.com,Extra Guy
James,12/06/14,KPAZX-HQKH7-KXN3D-5ZCFE-U4O23,No,james@indie-love.com,Indie Love
IndieLocus,12/06/14,VYWSO-IHGP3-FYMBA-U8U6Z-ZN6Y6,No,indielocus@gmail.com,IndieLocus
1ndieworld,12/06/14,XS63W-EGY6N-NWXWA-BAX86-WSXYF,No,j.wojcik@1ndieworld.com,1ndieworld
Herr,12/06/14,QGHJ4-R1MLZ-7QHRI-POKQA-XC8CL,No,herrkaschke@herrkaschke.com,your site
,12/06/14,NP516-W4XFN-MI3G4-BQFUJ-6T51R,No,,
,12/06/14,GY4D5-BPRF4-B0X1S-J7SY8-SSMYE,No,,
,12/06/14,HRTTO-U2OTL-N26NW-LTYO4-BKJI1,No,,
,12/06/14,TUIS5-KTUTN-FUELD-UGK7H-MOH5B,No,,
,,K92SC-8R0Q3-VCU8Y-3Z74J-AYVNJ,,,
,,HBPAG-R6KVV-M2ZMS-Q1XX0-AT3XX,,,
,,Z9WW6-CYUVM-6LOQJ-L48FY-8DTO6,,,
,,JW2CY-BMJMW-KD8OI-YRRPI-42Z5N,,,
,,QCNM2-VE06T-UHIGV-AIABQ-6MQI4,,,
,,ZWCQD-EUG59-966R3-PXXC6-YXMTC,,,
,,JLKFS-TA9NS-O7M01-EEBWO-LY5JI,,,
,,O6PFW-IOWV6-QJ5AR-9QHAL-R6W11,,,
,,HB9HB-JA2M1-TOVU5-JO2BO-9KC50,,,
,,GR6WI-VY2OZ-C7GMV-LUEBQ-ZR3UZ,,,
,,TNZGH-MHZYC-6QRH9-WQMMD-5U8S7,,,
,,KXO00-LNV8A-21G0Z-4AWCP-DM3SS,,,
,,MXUCZ-SRPHG-4IOD9-F9OBB-1GTQS,,,
,,GXJPA-IBPQN-27SCX-96I8A-RI7GA,,,
,,GNS0L-A1THL-DB99T-EJ905-L3JKZ,,,
,,ZTGPL-V6YMB-RLADB-A1169-TRTYM,,,
,,X5VVV-CSLZU-AKXR9-V1TTV-EQI7B,,,
,,LE8XB-W0ZPB-PQ1WR-3EVVG-US66B,,,
,,Y5I1E-3KCWW-XLYZ5-S0QFN-IYFGL,,,
,,KV8OC-AERFO-QO1LF-UENBJ-1FF0N,,,
,,MB63X-86YQK-C8M02-4HZ0F-FZJLT,,,
,,RZ0KU-EL3IO-G58YC-NQKOH-6NTV1,,,
,,R7JBR-CFRL5-U8GWL-965OF-MNVB4,,,
,,JFMEK-SPNRN-JAT71-U0FGR-KIVT5,,,
,,SKD5L-FWNMU-VKIM6-8QOOJ-22WWB,,,
,,Y5EZU-WYU18-O6BID-AF6FP-JKJ3B,,,
,,LHBZM-A1RXN-NY1MH-63P0P-6HACO,,,
,,ZHZC8-4TFKG-FMW30-RPNA5-HX9M1,,,
,,U49XP-WLTVV-E13C3-GWMOW-2J43D,,,
,,OVFN0-VTEZQ-K44JP-G8Y4D-3LQZT,,,
,,SZQHN-CWMRB-9U30F-G32DH-1PSVW,,,
,,LXURL-VC60E-LS1OD-34KIC-1JIWP,,,
,,GX62M-MJ91L-V8STT-BFGRG-JPEKW,,,
,,JI0IK-N1B5Y-4DB2X-BSQT1-ELR4D,,,
,,NYMIT-C8ABT-YDWJR-FKQ4B-E63KQ,,,
,,X62YI-E1YTR-62PHD-RJR0K-KIEVL,,,
,,HHMQN-6V0AS-79XXY-TVI8C-NW7QB,,,
,,QI1PF-HGTBE-3HWNX-YJU1O-B5P8M,,,
,,X9JR9-UKV4Z-G4GAS-4KRRE-2PFUT,,,
,,WDCAB-3LZDU-KNTN9-8TT7I-OO6B8,,,
,,VDM8U-AY7WR-3QM2Q-S2ERF-EFSJU,,,
,,VW8VV-SSJEJ-NCYGN-GDIUI-Y3I0E,,,
,,U4U2M-EU9Q2-JQYN1-X5LSJ-KZNWW,,,
,,Q7Z1O-FBIXJ-MXR0P-NLX86-1MWQL,,,
,,SEKAE-5MOM1-SKC0I-EX6AJ-8VZFX,,,
,,PBM54-3LG0J-1LUDY-HLUJL-G8UU8,,,
,,XME0L-QHRSQ-J7O6B-32OVG-MIXHO,,,
,,J9SX0-FI6A0-3DQD5-3PNLN-HFZ90,,,
,,GPFLS-8ESGY-SIKET-G4UGU-1ZFWX,,,
,,R6CSU-6GLEP-JUS6F-SZ24U-UZU84,,,
,,L3Z7K-7ZD77-DOCT1-MYLNT-AXSD1,,,
,,QIXFB-PS2W3-O0ZX4-IO01Q-C9XF4,,,
,,M0NEG-Q1CV7-22559-912V2-6C70U,,,
,,HUNWJ-XNNHM-Z2P8T-KPFM0-99CWK,,,
,,KB5FL-S81MM-8TM5A-B7445-IC7CU,,,
,,M2QCB-RO9ZG-GX0KQ-LZ5SI-7SOAW,,,
,,GGPVG-OIDPM-P02P0-9EXU4-SCRVI,,,
,,USPFI-TYK1T-CVVQX-NYCAG-KBBYQ,,,
,,UQJY5-FNHIA-5LLOV-3NH6N-CD898,,,
